Milestone #3 for Infectious disease outbreak
…
      November 9, 2025

#Load required packages
library(tidyverse)

Dataset 1: Simulated Novel Infection Disease case reporting for California

We can assume that the data source is simulated data of infectious disease cases for each county in California reported from public health agencies and organizations such as county health departments during 2023.

Our research question explores if the current outbreak is disproportionately affecting certain demographic or geographic populations to inform departments and agencies how to allocate prevention and treatment resources.

sim_novelid_CA <- read_csv("https://raw.githubusercontent.com//PHW290/phw251_projectdata/main/scenario_1/sim_novelid_CA.csv")
sim_novelid_CA

# A tibble: 98,952 × 12
   county      age_cat sex   race_ethnicity dt_diagnosis time_int new_infections
   <chr>       <chr>   <chr>          <dbl> <date>          <dbl>          <dbl>
 1 Alameda Co… 0-17    FEMA…              1 2023-05-29     202322              6
 2 Alameda Co… 0-17    FEMA…              1 2023-06-05     202323              1
 3 Alameda Co… 0-17    FEMA…              1 2023-06-12     202324              2
 4 Alameda Co… 0-17    FEMA…              1 2023-06-19     202325             10
 5 Alameda Co… 0-17    FEMA…              1 2023-06-26     202326             19
 6 Alameda Co… 0-17    FEMA…              1 2023-07-03     202327             25
 7 Alameda Co… 0-17    FEMA…              1 2023-07-10     202328             23
 8 Alameda Co… 0-17    FEMA…              1 2023-07-17     202329             18
 9 Alameda Co… 0-17    FEMA…              1 2023-07-24     202330             22
10 Alameda Co… 0-17    FEMA…              1 2023-07-31     202331             35
# ℹ 98,942 more rows
# ℹ 5 more variables: cumulative_infected <dbl>, new_unrecovered <dbl>,
#   cumulative_unrecovered <dbl>, new_severe <dbl>, cumulative_severe <dbl>
…
Relation of data to problem statement: This population dataset provides information on the general Californian population which can be stratified according to the demographic or geographic categories of interest, which will be useful for standardizing between groups for comparison.

#import the dataset and assign to an object
filepath_ca_pop_2023 <- "https://raw.githubusercontent.com/PHW290/phw251_projectdata/main/scenario_1/ca_pop_2023.csv"
ca_pop_2023 <- read_csv(filepath_ca_pop_2023)

#quick summary of population numbers (summed up the rows) across race and age groups
ca_pop_2023 |> 
  group_by(race7, age_cat) |> 
  summarise(
    count = n(),
    total = sum(pop)
  )

# A tibble: 42 × 4
# Groups:   race7 [7]
   race7    age_cat count   total
   <chr>    <chr>   <int>   <dbl>
 1 AIAN NH  0-4       580    7696
 2 AIAN NH  12-17     696   10771
 3 AIAN NH  18-49    3712   68029
 4 AIAN NH  5-11      812   11853
 5 AIAN NH  50-64    1740   31492
 6 AIAN NH  65+      5336   28831
 7 Asian NH 0-4       580  259055
 8 Asian NH 12-17     696  379005
 9 Asian NH 18-49    3712 2837607
10 Asian NH 5-11      812  474497
# ℹ 32 more rows
…
